{"success":true,"data":[{"dealId":"a1c78038-9ac0-4252-91b7-a5120aebee2b","id":"a1c78038-9ac0-4252-91b7-a5120aebee2b","title":"MILTON Aqua Stainless Steel Water Bottle, 920ml @238.","slug":"milton-aqua-stainless-steel-water-bottle-920ml-238-yxa7wj","description":"MILTON Aqua Stainless Steel Water Bottle, 920ml @238. 349","productImage":"https://cdn5.telesco.pe/file/N36ah2sKolbtEgn2PgvAmwI79xb2xswCzwQv5T0c71-MjbIoWMeWfD9iTwfj22_slt4OVaggYKmG9nmboVh482vtur67VQ9A5mQs6NV-3pO91cFycB5I_4SWFHNof-H51hVYcYmuGU5xSdRt4wzZew9L-wyVTjMQxor6teY-nKy471y_ztRAGlwknPcJqei0rDgraIwtJr7cBSNsTIP2N6xEKzz5Ej17JWb02H4jp16Qm-I2dCK98CQBg4LDHlTM3EFOsuqGS8NeHDYzCq7xPTpofl4RLT1e9PBMBMDoxEsm4NWLlbO_iS3Iprb6Vqa2rxprjEEwNRvfKLFWWMQbqQ.jpg","imageUrl":"https://cdn5.telesco.pe/file/N36ah2sKolbtEgn2PgvAmwI79xb2xswCzwQv5T0c71-MjbIoWMeWfD9iTwfj22_slt4OVaggYKmG9nmboVh482vtur67VQ9A5mQs6NV-3pO91cFycB5I_4SWFHNof-H51hVYcYmuGU5xSdRt4wzZew9L-wyVTjMQxor6teY-nKy471y_ztRAGlwknPcJqei0rDgraIwtJr7cBSNsTIP2N6xEKzz5Ej17JWb02H4jp16Qm-I2dCK98CQBg4LDHlTM3EFOsuqGS8NeHDYzCq7xPTpofl4RLT1e9PBMBMDoxEsm4NWLlbO_iS3Iprb6Vqa2rxprjEEwNRvfKLFWWMQbqQ.jpg","originalPrice":238,"discountedPrice":238,"discountPercent":0,"storeId":"5bb06899-7d2a-45f0-9656-22272f6ff27b","storeName":"Genie Loot Page","storeLogo":"https://www.google.com/s2/favicons?domain=t.me&sz=128","categoryId":"c654f4b9-9098-46b6-b100-3d44ebb37de8","categoryName":"General","categorySlug":"general","dealType":"DISCOUNT","dealUrl":"https://amzn.to/4vpqYTK","productUrl":"https://amzn.to/4vpqYTK","affiliateUrl":"https://amzn.to/4vpqYTK","couponCode":"","cashbackPercentage":0,"isHotDeal":false,"isFreeDeal":false,"isActive":true,"isFeatured":false,"isVerified":true,"shareCount":0,"savedCount":0,"clickCount":0,"voteScore":0,"currentPrice":238,"lowestPrice":238,"highestPrice":238,"averagePrice":238,"rating":4.3,"deliveryInfo":"See store","comparisonPrices":[],"source":"DISCOUNT","createdAt":"2026-06-03T12:35:16.507+00:00","updatedAt":"2026-06-03T12:35:16.507+00:00","expiryDate":"2026-06-10T12:35:04.578+00:00"}],"meta":{"pagination":{"page":1,"limit":1,"total":16,"totalPages":16}}}
